[gd_resource type="TileSet" load_steps=2 format=2]

[ext_resource path="res://assets/platforms.svg" type="Texture" id=1]

[resource]

0/name = "Green"
0/texture = ExtResource( 1 )
0/tex_offset = Vector2( 0, 0 )
0/modulate = Color( 1, 1, 1, 1 )
0/region = Rect2( 101, 1, 16, 16 )
0/is_autotile = false
0/occluder_offset = Vector2( 8, 8 )
0/navigation_offset = Vector2( 8, 8 )
0/shapes = [  ]

